{
  "appId": "io.ionic.starter",
  "appName": "tuten-mobile-test",
  "bundledWebRuntime": false,
  "npmClient": "npm",
  "webDir": "build",
  "plugins": {
    "SplashScreen": {
      "launchShowDuration": 0
    }
  },
  "cordova": {},
  "linuxAndroidStudioPath": "/snap/bin/android-studio"
}
